last_name,first_name,birthday,gender,type,state,party,url,address,phone,contact_form,rss_url,twitter,facebook,facebook_id,youtube,youtube_id,bioguide_id,thomas_id,opensecrets_id,lis_id,cspan_id,govtrack_id,votesmart_id,ballotpedia_id,washington_post_id,icpsr_id,wikipedia_id
Brown,Sherrod,1952-11-09,M,sen,OH,Democrat,http://www.brown.senate.gov,713 Hart Senate Office Building Washington DC 20510,202-224-2315,http://www.brown.senate.gov/contact,http://www.brown.senate.gov/rss/feeds/?type=all&amp;,SenSherrodBrown,,,SherrodBrownOhio,UCgy8jfERh-t_ixkKKoCmglQ,B000944,00136,N00003535,S307,5051,400050,27018,Sherrod Brown,gIQA3O2w9O,29389,Sherrod Brown
Cantwell,Maria,1958-10-13,F,sen,WA,Democrat,http://www.cantwell.senate.gov,311 Hart Senate Office Building Washington DC 20510,202-224-3441,http://www.cantwell.senate.gov/public/index.cfm/email-maria,http://www.cantwell.senate.gov/public/index.cfm/rss/feed,CantwellPress,,,SenatorCantwell,UCN52UDqKgvHRk39ncySrIMw,C000127,00172,N00007836,S275,26137,300018,27122,Maria Cantwell,gIQAZxKkDP,39310,Maria Cantwell
Cardin,Benjamin,1943-10-05,M,sen,MD,Democrat,http://www.cardin.senate.gov,509 Hart Senate Office Building Washington DC 20510,202-224-4524,http://www.cardin.senate.gov/contact/,http://www.cardin.senate.gov/rss/feeds/?type=all,SenatorCardin,senatorbencardin,120421834675191,senatorcardin,UCiQaJnMzlfzzG3VESgyZChA,C000141,00174,N00001955,S308,4004,400064,26888,Ben Cardin,gIQAGMu99O,15408,Ben Cardin
